[
    {
      "id": 0,
      "title": null,
      "filename": "andreas-dress-1406323-unsplash.jpg",
      "location": "Fraser Island Beach Track, Fraser Island, Australia",
      "source": {
        "name": "Unsplash",
        "url": "https://unsplash.com"
      },
      "photographer": {
        "name": "Andreas Dress",
        "url": "https://unsplash.com/@picsbydress"
      }
    },
    {
      "id": 1,
      "title": null,
      "filename": "who-du-nelson-1406613-unsplash.jpg",
      "location": null,
      "source": {
        "name": "Unsplash",
        "url": "https://unsplash.com"
      },
      "photographer": {
        "name": "who?du!nelson",
        "url": "https://unsplash.com/@whodunelson"
      }
    },
    {
      "id": 2,
      "title": null,
      "filename": "klara-avsenik-1406514-unsplash.jpg",
      "location": "Ljubljana, Slovenia",
      "source": {
        "name": "Unsplash",
        "url": "https://unsplash.com"
      },
      "photographer": {
        "name": "Klara Avsenik",
        "url": "https://unsplash.com/@curryandlove"
      }
    },
    {
      "id": 3,
      "title": null,
      "filename": "brayden-law-1407613-unsplash.jpg",
      "location": "The Broad, Los Angeles, United States of America",
      "source": {
        "name": "Unsplash",
        "url": "https://unsplash.com"
      },
      "photographer": {
        "name": "Brayden Law",
        "url": "https://unsplash.com/@braydenlaw"
      }
    },
    {
      "id": 4,
      "title": null,
      "filename": "yunming-wang-1408276-unsplash.jpg",
      "location": null,
      "source": {
        "name": "Unsplash",
        "url": "https://unsplash.com"
      },
      "photographer": {
        "name": "Yunming Wang",
        "url": "https://unsplash.com/@ymwang"
      }
    },
    {
      "id": 5,
      "title": null,
      "filename": "greg-bulla-1407473-unsplash.jpg",
      "location": null,
      "source": {
        "name": "Unsplash",
        "url": "https://unsplash.com"
      },
      "photographer": {
        "name": "Greg Bulla",
        "url": "https://unsplash.com/@gregbulla"
      }
    },
    {
      "id": 6,
      "title": null,
      "filename": "yann-allegre-1408153-unsplash.jpg",
      "location": null,
      "source": {
        "name": "Unsplash",
        "url": "https://unsplash.com"
      },
      "photographer": {
        "name": "Yann Allegre",
        "url": "https://unsplash.com/@yann_allegre"
      }
    },
    {
      "id": 7,
      "title": null,
      "filename": "josh-hild-1407748-unsplash.jpg",
      "location": null,
      "source": {
        "name": "Unsplash",
        "url": "https://unsplash.com"
      },
      "photographer": {
        "name": "Josh Hild",
        "url": "https://unsplash.com/@joshhild"
      }
    },
    {
      "id": 8,
      "title": null,
      "filename": "cole-keister-1407447-unsplash.jpg",
      "location": "Oregon, Portland, USA",
      "source": {
        "name": "Unsplash",
        "url": "https://unsplash.com"
      },
      "photographer": {
        "name": "Cole Keister",
        "url": "https://unsplash.com/@coleito"
      }
    }
  ]
  